Model the residuals of stock price predictions. — get_lightgbm_model • financialDataAnalysis
…
    See also

    prophet_models predict_price()

    Examples

get_lightgbm_model("daily")
#> $pre
#> $actions
#> $actions$recipe
#> $recipe
#> $var_info
#> # A tibble: 86 × 4
#>    variable        type    role      source  
#>    <chr>           <chr>   <chr>     <chr>   
#>  1 ticker          nominal predictor original
#>  2 ds              date    predictor original
#>  3 residuals_lag8  numeric predictor original
#>  4 residuals_lag9  numeric predictor original
#>  5 residuals_lag10 numeric predictor original
#>  6 residuals_lag11 numeric predictor original
#>  7 residuals_lag12 numeric predictor original
#>  8 residuals_lag13 numeric predictor original
#>  9 residuals_lag14 numeric predictor original
#> 10 residuals_lag15 numeric predictor original
#> # … with 76 more rows
#> 
#> $term_info
#> # A tibble: 86 × 4
#>    variable        type    role      source  
#>    <chr>           <chr>   <chr>     <chr>   
#>  1 ticker          nominal predictor original
#>  2 ds              date    predictor original
#>  3 residuals_lag8  numeric predictor original
#>  4 residuals_lag9  numeric predictor original
#>  5 residuals_lag10 numeric predictor original
#>  6 residuals_lag11 numeric predictor original
#>  7 residuals_lag12 numeric predictor original
#>  8 residuals_lag13 numeric predictor original
#>  9 residuals_lag14 numeric predictor original
#> 10 residuals_lag15 numeric predictor original
#> # … with 76 more rows
…
#> #   residuals_lag18 <dbl>, residuals_lag19 <dbl>, residuals_lag20 <dbl>,
#> #   residuals_lag21 <dbl>, residuals_lag22 <dbl>, residuals_lag23 <dbl>,
#> #   residuals_lag24 <dbl>, residuals_lag25 <dbl>, residuals_lag26 <dbl>, …
#> 
#> $ptypes$outcomes
#> # A tibble: 0 × 1
#> # … with 1 variable: residuals <dbl>
#> 
#> 
#> $fresh
#> [1] TRUE
#> 
#> $recipe
#> $var_info
#> # A tibble: 86 × 4
#>    variable        type    role      source  
#>    <chr>           <chr>   <chr>     <chr>   
#>  1 ticker          nominal predictor original
#>  2 ds              date    predictor original
#>  3 residuals_lag8  numeric predictor original
#>  4 residuals_lag9  numeric predictor original
#>  5 residuals_lag10 numeric predictor original
#>  6 residuals_lag11 numeric predictor original
#>  7 residuals_lag12 numeric predictor original
#>  8 residuals_lag13 numeric predictor original
#>  9 residuals_lag14 numeric predictor original
#> 10 residuals_lag15 numeric predictor original
#> # … with 76 more rows
#> 
#> $term_info
#> # A tibble: 100 × 4
#>    variable        type    role      source  
#>    <chr>           <chr>   <chr>     <chr>   
#>  1 ticker          nominal predictor original
#>  2 residuals_lag8  numeric predictor original
#>  3 residuals_lag9  numeric predictor original
#>  4 residuals_lag10 numeric predictor original
#>  5 residuals_lag11 numeric predictor original
#>  6 residuals_lag12 numeric predictor original
#>  7 residuals_lag13 numeric predictor original
#>  8 residuals_lag14 numeric predictor original
#>  9 residuals_lag15 numeric predictor original
#> 10 residuals_lag16 numeric predictor original
#> # … with 90 more rows
…
#> $orig_lvls$residuals_lag90$ordered
#> [1] NA
#> 
#> 
#> $orig_lvls$residuals
#> $orig_lvls$residuals$values
#> [1] NA
#> 
#> $orig_lvls$residuals$ordered
#> [1] NA
#> 
#> 
#> 
#> $last_term_info
#> # A tibble: 101 × 6
#> # Groups:   variable [101]
#>    variable   type    role      source   number skip 
#>    <chr>      <chr>   <list>    <chr>     <dbl> <lgl>
#>  1 ds         date    <chr [1]> original      2 FALSE
#>  2 ds_cos_1   numeric <chr [1]> derived       3 FALSE
#>  3 ds_cos_2   numeric <chr [1]> derived       3 FALSE
#>  4 ds_cos_3   numeric <chr [1]> derived       3 FALSE
#>  5 ds_cos_4   numeric <chr [1]> derived       3 FALSE
#>  6 ds_cos_5   numeric <chr [1]> derived       3 FALSE
#>  7 ds_decimal numeric <chr [1]> derived       3 FALSE
#>  8 ds_dow     nominal <chr [1]> derived       3 FALSE
#>  9 ds_month   nominal <chr [1]> derived       3 FALSE
#> 10 ds_quarter numeric <chr [1]> derived       3 FALSE
#> # … with 91 more rows
…
