Review of prototype 2 • financialDataAnalysis
…
The first argument of input_data() should be a character
vector of one or more file paths, to be converted into data frames. If
we give the function a bad file or a file containing bad data, it will
return the default stock data and print out a message describing the
problem.

input_data("aaaa")
#> [1] "Files were not converted correctly."
#> # A tibble: 497 × 100
#>    symbol company…¹ excha…² indus…³ website descr…⁴ ceo   secur…⁵ sector prima…⁶
#>    <chr>  <chr>     <chr>   <chr>   <chr>   <chr>   <chr> <chr>   <chr>    <dbl>
#>  1 MMM    3M Co.    NEW YO… "Offic… www.3m… "3M Co… Mich… 3M Co.  Manag…    3841
#>  2 AOS    A.O. Smi… NEW YO… "Heati… www.ao… "A. O.… Kevi… A.O. S… Manuf…    3630
#>  3 ABT    Abbott L… NEW YO… "Pharm… www.ab… "Abbot… Robe… Abbott… Manuf…    2834
#>  4 ABBV   Abbvie I… NEW YO… "Pharm… www.ab… "AbbVi… Rich… Abbvie… Manuf…    2834
#>  5 ABMD   Abiomed … NASDAQ  "Surgi… www.ab… "Abiom… Mich… Abiome… Manuf…    3841
#>  6 ACN    Accentur… NEW YO… "Data … www.ac… "Accen… NA    Accent… Infor…    7389
#>  7 ATVI   Activisi… NASDAQ  "Softw… www.ac… "Activ… Robe… Activi… Infor…    7372
#>  8 ADM    Archer D… NEW YO… "Flour… www.ad… "ADM u… Juan… Archer… Manuf…    2041
#>  9 ADBE   Adobe Inc NASDAQ  "Softw… www.ad… "Adobe… Shan… Adobe … Infor…    7372
#> 10 ADP    Automati… NASDAQ  "Data … www.ad… "ADP i… Carl… Automa… Infor…    7374
#> # … with 487 more rows, 90 more variables: employees <dbl>, address <chr>,
#> #   state <chr>, city <chr>, ZIP <chr>, country <chr>, phone <dbl>,
#> #   capital_expenditures <dbl>, cash_change <dbl>, cash_flow <dbl>,
#> #   cash_flow_financing <dbl>, changes_in_inventories <dbl>,
#> #   changes_in_receivables <dbl>, currency <chr>, depreciation <dbl>,
#> #   filing_type <chr>, fiscal_date <dbl>, net_borrowings <dbl>,
#> #   net_income <dbl>, report_date <dbl>, total_investing_cash_flows <dbl>, …
…
#> # A tibble: 10 × 2
#>        x     y
#>    <dbl> <dbl>
#>  1     1    10
#>  2     2     9
#>  3     3     8
#>  4     4     7
#>  5     5     6
#>  6     6     5
#>  7     7     4
#>  8     8     3
#>  9     9     2
#> 10    10     1
input_data(file_2)
#> # A tibble: 100 × 2
#>        x z    
#>    <dbl> <chr>
#>  1     1 a    
#>  2     2 b    
#>  3     3 c    
#>  4     4 d    
#>  5     5 e    
#>  6     6 f    
#>  7     7 g    
#>  8     8 h    
#>  9     9 i    
#> 10    10 j    
#> # … with 90 more rows

If more than one files are given, the data frames are combined
together. This is done in a way such that all data is preserved and the
function never errors.

input_data(c(file_1, file_2))
#> # A tibble: 100 × 3
#>        x     y z    
#>    <dbl> <dbl> <chr>
#>  1     1    10 a    
#>  2     2     9 b    
#>  3     3     8 c    
#>  4     4     7 d    
#>  5     5     6 e    
#>  6     6     5 f    
#>  7     7     4 g    
#>  8     8     3 h    
#>  9     9     2 i    
#> 10    10     1 j    
#> # … with 90 more rows

The function also has a combine argument, which allows
you to combine your data with the default stock data. This is useful if
you want to add more rows or columns to the data.

input_data(file_1, combine = TRUE)
#> # A tibble: 507 × 102
#>        x     y symbol company_name excha…¹ indus…² website descr…³ ceo   secur…⁴
#>    <dbl> <dbl> <chr>  <chr>        <chr>   <chr>   <chr>   <chr>   <chr> <chr>  
#>  1     1    10 NA     NA           NA      NA      NA      NA      NA    NA     
#>  2     2     9 NA     NA           NA      NA      NA      NA      NA    NA     
#>  3     3     8 NA     NA           NA      NA      NA      NA      NA    NA     
#>  4     4     7 NA     NA           NA      NA      NA      NA      NA    NA     
#>  5     5     6 NA     NA           NA      NA      NA      NA      NA    NA     
#>  6     6     5 NA     NA           NA      NA      NA      NA      NA    NA     
#>  7     7     4 NA     NA           NA      NA      NA      NA      NA    NA     
#>  8     8     3 NA     NA           NA      NA      NA      NA      NA    NA     
#>  9     9     2 NA     NA           NA      NA      NA      NA      NA    NA     
#> 10    10     1 NA     NA           NA      NA      NA      NA      NA    NA     
#> # … with 497 more rows, 92 more variables: sector <chr>,
#> #   primary_sic_code <dbl>, employees <dbl>, address <chr>, state <chr>,
#> #   city <chr>, ZIP <chr>, country <chr>, phone <dbl>,
#> #   capital_expenditures <dbl>, cash_change <dbl>, cash_flow <dbl>,
#> #   cash_flow_financing <dbl>, changes_in_inventories <dbl>,
#> #   changes_in_receivables <dbl>, currency <chr>, depreciation <dbl>,
#> #   filing_type <chr>, fiscal_date <dbl>, net_borrowings <dbl>, …
input_data(c(file_1, file_2), combine = TRUE)
#> # A tibble: 597 × 103
#>        x     y z     symbol company_name exchange industry website descr…¹ ceo  
#>    <dbl> <dbl> <chr> <chr>  <chr>        <chr>    <chr>    <chr>   <chr>   <chr>
#>  1     1    10 a     NA     NA           NA       NA       NA      NA      NA   
#>  2     2     9 b     NA     NA           NA       NA       NA      NA      NA   
#>  3     3     8 c     NA     NA           NA       NA       NA      NA      NA   
#>  4     4     7 d     NA     NA           NA       NA       NA      NA      NA   
#>  5     5     6 e     NA     NA           NA       NA       NA      NA      NA   
#>  6     6     5 f     NA     NA           NA       NA       NA      NA      NA   
#>  7     7     4 g     NA     NA           NA       NA       NA      NA      NA   
#>  8     8     3 h     NA     NA           NA       NA       NA      NA      NA   
#>  9     9     2 i     NA     NA           NA       NA       NA      NA      NA   
#> 10    10     1 j     NA     NA           NA       NA       NA      NA      NA   
#> # … with 587 more rows, 93 more variables: security_name <chr>, sector <chr>,
#> #   primary_sic_code <dbl>, employees <dbl>, address <chr>, state <chr>,
#> #   city <chr>, ZIP <chr>, country <chr>, phone <dbl>,
#> #   capital_expenditures <dbl>, cash_change <dbl>, cash_flow <dbl>,
#> #   cash_flow_financing <dbl>, changes_in_inventories <dbl>,
#> #   changes_in_receivables <dbl>, currency <chr>, depreciation <dbl>,
#> #   filing_type <chr>, fiscal_date <dbl>, net_borrowings <dbl>, …
…
Applying score specifications

Create the actual scores, and add them to your data, with the
apply_scores() function.

data <- tibble(
  x = 1:100,
  y = 100:1,
  z = letters[rep(1:10, 10)]
)
scored_data <- apply_scores(data, scores)
scored_data
#> # A tibble: 100 × 5
#>        x     y z     `Score 1: x` `Score 2: y`
#>    <int> <int> <chr>        <dbl>        <dbl>
#>  1     1   100 a              0.1            0
#>  2     2    99 b              0.2            0
#>  3     3    98 c              0.3            0
#>  4     4    97 d              0.4            0
#>  5     5    96 e              0.5            0
#>  6     6    95 f              0.6            0
#>  7     7    94 g              0.7            0
#>  8     8    93 h              0.8            0
#>  9     9    92 i              0.9            0
#> 10    10    91 j              1              0
#> # … with 90 more rows

Finally, you can create a final score with the
score_final() function. This calculates a weighted mean of
all the scores you have created.

final_data <- score_final(scored_data, scores)
final_data
#> # A tibble: 100 × 6
#>        x     y z     `Score 1: x` `Score 2: y` final_score
#>    <int> <int> <chr>        <dbl>        <dbl>       <dbl>
#>  1     1   100 a              0.1            0      0.0286
#>  2     2    99 b              0.2            0      0.0571
#>  3     3    98 c              0.3            0      0.0857
#>  4     4    97 d              0.4            0      0.114 
#>  5     5    96 e              0.5            0      0.143 
#>  6     6    95 f              0.6            0      0.171 
#>  7     7    94 g              0.7            0      0.2   
#>  8     8    93 h              0.8            0      0.229 
#>  9     9    92 i              0.9            0      0.257 
#> 10    10    91 j              1              0      0.286 
#> # … with 90 more rows
…
predictions_daily
#> # A tibble: 63 × 4
#>     yhat yhat_lower yhat_upper ref_date  
#>    <dbl>      <dbl>      <dbl> <date>    
#>  1  98.9       96.6      104.  2022-12-15
#>  2 100.        96.6      104.  2022-12-16
#>  3  87.5       83.2       90.5 2022-12-17
#>  4  86.5       83.4       91.1 2022-12-18
#>  5 100.        97.2      105.  2022-12-19
#>  6 102.        96.8      105.  2022-12-20
#>  7 101.        97.3      106.  2022-12-21
#>  8 101.        97.1      106.  2022-12-22
#>  9 101.        97.2      107.  2022-12-23
#> 10  88.5       83.4       93.0 2022-12-24
#> # … with 53 more rows
…
The project currently provides two ‘default’ plots, and a framework
for you to create your own custom plots.

Score distribution

The score distribution plot creates a box plot with a jitter overlay
to show the distribution of each of your scores.

To get your scores to plot, use the get_scores()
function.

actual_scores <- get_scores(final_data, scores)
actual_scores
#> # A tibble: 100 × 3
#>    `Score 1: x` `Score 2: y` final_score
#>           <dbl>        <dbl>       <dbl>
#>  1          0.1            0      0.0286
#>  2          0.2            0      0.0571
#>  3          0.3            0      0.0857
#>  4          0.4            0      0.114 
#>  5          0.5            0      0.143 
#>  6          0.6            0      0.171 
#>  7          0.7            0      0.2   
#>  8          0.8            0      0.229 
#>  9          0.9            0      0.257 
#> 10          1              0      0.286 
#> # … with 90 more rows
…
